%!PS-Adobe-2.0 EPSF-2.0
%%Title: /home/fabior/Documenti/univ_lt_informatica/progetto_finale/thesis/figures/bi-parallel.dia
%%Creator: Dia v0.97
%%CreationDate: Tue Jun 29 14:34:10 2010
%%For: fabior
%%Orientation: Portrait
%%Magnification: 1.0000
%%BoundingBox: 0 0 478 500
%%BeginSetup
%%EndSetup
%%EndComments
%%BeginProlog
[ /.notdef /.notdef /.notdef /.notdef /.notdef /.notdef /.notdef /.notdef /.notdef /.notdef
/.notdef /.notdef /.notdef /.notdef /.notdef /.notdef /.notdef /.notdef /.notdef /.notdef
/.notdef /.notdef /.notdef /.notdef /.notdef /.notdef /.notdef /.notdef /.notdef /.notdef
/.notdef /.notdef /space /exclam /quotedbl /numbersign /dollar /percent /ampersand /quoteright
/parenleft /parenright /asterisk /plus /comma /hyphen /period /slash /zero /one
/two /three /four /five /six /seven /eight /nine /colon /semicolon
/less /equal /greater /question /at /A /B /C /D /E
/F /G /H /I /J /K /L /M /N /O
/P /Q /R /S /T /U /V /W /X /Y
/Z /bracketleft /backslash /bracketright /asciicircum /underscore /quoteleft /a /b /c
/d /e /f /g /h /i /j /k /l /m
/n /o /p /q /r /s /t /u /v /w
/x /y /z /braceleft /bar /braceright /asciitilde /.notdef /.notdef /.notdef
/.notdef /.notdef /.notdef /.notdef /.notdef /.notdef /.notdef /.notdef /.notdef /.notdef
/.notdef /.notdef /.notdef /.notdef /.notdef /.notdef /.notdef /.notdef /.notdef /.notdef
/.notdef /.notdef /.notdef /.notdef /.notdef /.notdef /.notdef /.notdef /.notdef /.notdef
/space /exclamdown /cent /sterling /currency /yen /brokenbar /section /dieresis /copyright
/ordfeminine /guillemotleft /logicalnot /hyphen /registered /macron /degree /plusminus /twosuperior /threesuperior
/acute /mu /paragraph /periodcentered /cedilla /onesuperior /ordmasculine /guillemotright /onequarter /onehalf
/threequarters /questiondown /Agrave /Aacute /Acircumflex /Atilde /Adieresis /Aring /AE /Ccedilla
/Egrave /Eacute /Ecircumflex /Edieresis /Igrave /Iacute /Icircumflex /Idieresis /Eth /Ntilde
/Ograve /Oacute /Ocircumflex /Otilde /Odieresis /multiply /Oslash /Ugrave /Uacute /Ucircumflex
/Udieresis /Yacute /Thorn /germandbls /agrave /aacute /acircumflex /atilde /adieresis /aring
/ae /ccedilla /egrave /eacute /ecircumflex /edieresis /igrave /iacute /icircumflex /idieresis
/eth /ntilde /ograve /oacute /ocircumflex /otilde /odieresis /divide /oslash /ugrave
/uacute /ucircumflex /udieresis /yacute /thorn /ydieresis] /isolatin1encoding exch def
/cp {closepath} bind def
/c {curveto} bind def
/f {fill} bind def
/a {arc} bind def
/ef {eofill} bind def
/ex {exch} bind def
/gr {grestore} bind def
/gs {gsave} bind def
/sa {save} bind def
/rs {restore} bind def
/l {lineto} bind def
/m {moveto} bind def
/rm {rmoveto} bind def
/n {newpath} bind def
/s {stroke} bind def
/sh {show} bind def
/slc {setlinecap} bind def
/slj {setlinejoin} bind def
/slw {setlinewidth} bind def
/srgb {setrgbcolor} bind def
/rot {rotate} bind def
/sc {scale} bind def
/sd {setdash} bind def
/ff {findfont} bind def
/sf {setfont} bind def
/scf {scalefont} bind def
/sw {stringwidth pop} bind def
/tr {translate} bind def

/ellipsedict 8 dict def
ellipsedict /mtrx matrix put
/ellipse
{ ellipsedict begin
   /endangle exch def
   /startangle exch def
   /yrad exch def
   /xrad exch def
   /y exch def
   /x exch def   /savematrix mtrx currentmatrix def
   x y tr xrad yrad sc
   0 0 1 startangle endangle arc
   savematrix setmatrix
   end
} def

/mergeprocs {
dup length
3 -1 roll
dup
length
dup
5 1 roll
3 -1 roll
add
array cvx
dup
3 -1 roll
0 exch
putinterval
dup
4 2 roll
putinterval
} bind def
/Times-Roman-latin1
    /Times-Roman findfont
    dup length dict begin
	{1 index /FID ne {def} {pop pop} ifelse} forall
	/Encoding isolatin1encoding def
    currentdict end
definefont pop
/Times-Italic-latin1
    /Times-Italic findfont
    dup length dict begin
	{1 index /FID ne {def} {pop pop} ifelse} forall
	/Encoding isolatin1encoding def
    currentdict end
definefont pop
/Times-Bold-latin1
    /Times-Bold findfont
    dup length dict begin
	{1 index /FID ne {def} {pop pop} ifelse} forall
	/Encoding isolatin1encoding def
    currentdict end
definefont pop
/Times-BoldItalic-latin1
    /Times-BoldItalic findfont
    dup length dict begin
	{1 index /FID ne {def} {pop pop} ifelse} forall
	/Encoding isolatin1encoding def
    currentdict end
definefont pop
/AvantGarde-Gothic-latin1
    /AvantGarde-Gothic findfont
    dup length dict begin
	{1 index /FID ne {def} {pop pop} ifelse} forall
	/Encoding isolatin1encoding def
    currentdict end
definefont pop
/AvantGarde-BookOblique-latin1
    /AvantGarde-BookOblique findfont
    dup length dict begin
	{1 index /FID ne {def} {pop pop} ifelse} forall
	/Encoding isolatin1encoding def
    currentdict end
definefont pop
/AvantGarde-Demi-latin1
    /AvantGarde-Demi findfont
    dup length dict begin
	{1 index /FID ne {def} {pop pop} ifelse} forall
	/Encoding isolatin1encoding def
    currentdict end
definefont pop
/AvantGarde-DemiOblique-latin1
    /AvantGarde-DemiOblique findfont
    dup length dict begin
	{1 index /FID ne {def} {pop pop} ifelse} forall
	/Encoding isolatin1encoding def
    currentdict end
definefont pop
/Bookman-Light-latin1
    /Bookman-Light findfont
    dup length dict begin
	{1 index /FID ne {def} {pop pop} ifelse} forall
	/Encoding isolatin1encoding def
    currentdict end
definefont pop
/Bookman-LightItalic-latin1
    /Bookman-LightItalic findfont
    dup length dict begin
	{1 index /FID ne {def} {pop pop} ifelse} forall
	/Encoding isolatin1encoding def
    currentdict end
definefont pop
/Bookman-Demi-latin1
    /Bookman-Demi findfont
    dup length dict begin
	{1 index /FID ne {def} {pop pop} ifelse} forall
	/Encoding isolatin1encoding def
    currentdict end
definefont pop
/Bookman-DemiItalic-latin1
    /Bookman-DemiItalic findfont
    dup length dict begin
	{1 index /FID ne {def} {pop pop} ifelse} forall
	/Encoding isolatin1encoding def
    currentdict end
definefont pop
/Courier-latin1
    /Courier findfont
    dup length dict begin
	{1 index /FID ne {def} {pop pop} ifelse} forall
	/Encoding isolatin1encoding def
    currentdict end
definefont pop
/Courier-Oblique-latin1
    /Courier-Oblique findfont
    dup length dict begin
	{1 index /FID ne {def} {pop pop} ifelse} forall
	/Encoding isolatin1encoding def
    currentdict end
definefont pop
/Courier-Bold-latin1
    /Courier-Bold findfont
    dup length dict begin
	{1 index /FID ne {def} {pop pop} ifelse} forall
	/Encoding isolatin1encoding def
    currentdict end
definefont pop
/Courier-BoldOblique-latin1
    /Courier-BoldOblique findfont
    dup length dict begin
	{1 index /FID ne {def} {pop pop} ifelse} forall
	/Encoding isolatin1encoding def
    currentdict end
definefont pop
/Helvetica-latin1
    /Helvetica findfont
    dup length dict begin
	{1 index /FID ne {def} {pop pop} ifelse} forall
	/Encoding isolatin1encoding def
    currentdict end
definefont pop
/Helvetica-Oblique-latin1
    /Helvetica-Oblique findfont
    dup length dict begin
	{1 index /FID ne {def} {pop pop} ifelse} forall
	/Encoding isolatin1encoding def
    currentdict end
definefont pop
/Helvetica-Bold-latin1
    /Helvetica-Bold findfont
    dup length dict begin
	{1 index /FID ne {def} {pop pop} ifelse} forall
	/Encoding isolatin1encoding def
    currentdict end
definefont pop
/Helvetica-BoldOblique-latin1
    /Helvetica-BoldOblique findfont
    dup length dict begin
	{1 index /FID ne {def} {pop pop} ifelse} forall
	/Encoding isolatin1encoding def
    currentdict end
definefont pop
/Helvetica-Narrow-latin1
    /Helvetica-Narrow findfont
    dup length dict begin
	{1 index /FID ne {def} {pop pop} ifelse} forall
	/Encoding isolatin1encoding def
    currentdict end
definefont pop
/Helvetica-Narrow-Oblique-latin1
    /Helvetica-Narrow-Oblique findfont
    dup length dict begin
	{1 index /FID ne {def} {pop pop} ifelse} forall
	/Encoding isolatin1encoding def
    currentdict end
definefont pop
/Helvetica-Narrow-Bold-latin1
    /Helvetica-Narrow-Bold findfont
    dup length dict begin
	{1 index /FID ne {def} {pop pop} ifelse} forall
	/Encoding isolatin1encoding def
    currentdict end
definefont pop
/Helvetica-Narrow-BoldOblique-latin1
    /Helvetica-Narrow-BoldOblique findfont
    dup length dict begin
	{1 index /FID ne {def} {pop pop} ifelse} forall
	/Encoding isolatin1encoding def
    currentdict end
definefont pop
/NewCenturySchlbk-Roman-latin1
    /NewCenturySchlbk-Roman findfont
    dup length dict begin
	{1 index /FID ne {def} {pop pop} ifelse} forall
	/Encoding isolatin1encoding def
    currentdict end
definefont pop
/NewCenturySchlbk-Italic-latin1
    /NewCenturySchlbk-Italic findfont
    dup length dict begin
	{1 index /FID ne {def} {pop pop} ifelse} forall
	/Encoding isolatin1encoding def
    currentdict end
definefont pop
/NewCenturySchlbk-Bold-latin1
    /NewCenturySchlbk-Bold findfont
    dup length dict begin
	{1 index /FID ne {def} {pop pop} ifelse} forall
	/Encoding isolatin1encoding def
    currentdict end
definefont pop
/NewCenturySchlbk-BoldItalic-latin1
    /NewCenturySchlbk-BoldItalic findfont
    dup length dict begin
	{1 index /FID ne {def} {pop pop} ifelse} forall
	/Encoding isolatin1encoding def
    currentdict end
definefont pop
/Palatino-Roman-latin1
    /Palatino-Roman findfont
    dup length dict begin
	{1 index /FID ne {def} {pop pop} ifelse} forall
	/Encoding isolatin1encoding def
    currentdict end
definefont pop
/Palatino-Italic-latin1
    /Palatino-Italic findfont
    dup length dict begin
	{1 index /FID ne {def} {pop pop} ifelse} forall
	/Encoding isolatin1encoding def
    currentdict end
definefont pop
/Palatino-Bold-latin1
    /Palatino-Bold findfont
    dup length dict begin
	{1 index /FID ne {def} {pop pop} ifelse} forall
	/Encoding isolatin1encoding def
    currentdict end
definefont pop
/Palatino-BoldItalic-latin1
    /Palatino-BoldItalic findfont
    dup length dict begin
	{1 index /FID ne {def} {pop pop} ifelse} forall
	/Encoding isolatin1encoding def
    currentdict end
definefont pop
/Symbol-latin1
    /Symbol findfont
definefont pop
/ZapfChancery-MediumItalic-latin1
    /ZapfChancery-MediumItalic findfont
    dup length dict begin
	{1 index /FID ne {def} {pop pop} ifelse} forall
	/Encoding isolatin1encoding def
    currentdict end
definefont pop
/ZapfDingbats-latin1
    /ZapfDingbats findfont
    dup length dict begin
	{1 index /FID ne {def} {pop pop} ifelse} forall
	/Encoding isolatin1encoding def
    currentdict end
definefont pop
28.346000 -28.346000 scale
-6.480000 -26.255000 translate
%%EndProlog


1.000000 1.000000 1.000000 srgb
n 15.100000 10.825000 2.250000 2.125000 0 360 ellipse f
0.100000 slw
[] 0 sd
[] 0 sd
0.000000 0.000000 0.000000 srgb
n 15.100000 10.825000 2.250000 2.125000 0 360 ellipse cp s
1.000000 1.000000 1.000000 srgb
n 15.015000 24.080000 2.250000 2.125000 0 360 ellipse f
0.100000 slw
[] 0 sd
[] 0 sd
0.000000 0.000000 0.000000 srgb
n 15.015000 24.080000 2.250000 2.125000 0 360 ellipse cp s
1.000000 1.000000 1.000000 srgb
n 8.780000 17.485000 2.250000 2.125000 0 360 ellipse f
0.100000 slw
[] 0 sd
[] 0 sd
0.000000 0.000000 0.000000 srgb
n 8.780000 17.485000 2.250000 2.125000 0 360 ellipse cp s
/Helvetica-latin1 ff 1.975556 scf sf
(X) 14.350000 11.010556 m
 gs 1 -1 sc sh gr
/Helvetica-latin1 ff 1.975556 scf sf
(Y) 8.115000 17.688056 m
 gs 1 -1 sc sh gr
/Helvetica-latin1 ff 1.975556 scf sf
(W) 13.930000 24.343056 m
 gs 1 -1 sc sh gr
1.000000 1.000000 1.000000 srgb
n 21.015000 17.330000 2.250000 2.125000 0 360 ellipse f
0.100000 slw
[] 0 sd
[] 0 sd
0.000000 0.000000 0.000000 srgb
n 21.015000 17.330000 2.250000 2.125000 0 360 ellipse cp s
(Z) 20.230000 17.493056 m
 gs 1 -1 sc sh gr
0.100000 slw
[] 0 sd
[] 0 sd
0 slc
n 13.563782 12.443863 m 10.651309 15.513020 l s
[] 0 sd
0 slj
0 slc
n 10.393178 15.785037 m 10.556007 15.250260 l 10.651309 15.513020 l 10.918697 15.594434 l ef
n 10.393178 15.785037 m 10.556007 15.250260 l 10.651309 15.513020 l 10.918697 15.594434 l cp s
0.100000 slw
[] 0 sd
[] 0 sd
0 slc
n 16.599328 12.473881 m 19.188171 15.320951 l s
[] 0 sd
0 slj
0 slc
n 19.440455 15.598400 m 18.919111 15.396658 l 19.188171 15.320951 l 19.289042 15.060279 l ef
n 19.440455 15.598400 m 18.919111 15.396658 l 19.188171 15.320951 l 19.289042 15.060279 l cp s
0.100000 slw
[] 0 sd
[] 0 sd
0 slc
n 19.535142 18.994841 m 16.818273 22.051318 l s
[] 0 sd
0 slj
0 slc
n 16.569137 22.331596 m 16.714466 21.791801 l 16.818273 22.051318 l 17.088171 22.123983 l ef
n 16.569137 22.331596 m 16.714466 21.791801 l 16.818273 22.051318 l 17.088171 22.123983 l cp s
0.100000 slw
[] 0 sd
[] 0 sd
0 slc
n 10.313063 19.106579 m 13.147506 22.104679 l s
[] 0 sd
0 slj
0 slc
n 13.405129 22.377177 m 12.879966 22.185595 l 13.147506 22.104679 l 13.243297 21.842098 l ef
n 13.405129 22.377177 m 12.879966 22.185595 l 13.147506 22.104679 l 13.243297 21.842098 l cp s
showpage
