%!PS-Adobe-2.0 EPSF-2.0
%%Title: /windows/D/Users/fabior.FABIORINNONE/Documents/univ_lt_informatica/progetto_finale/thesis/figures/grafo.dia
%%Creator: Dia v0.97
%%CreationDate: Sat Jun 26 11:29:00 2010
%%For: fabior
%%Orientation: Portrait
%%Magnification: 1.0000
%%BoundingBox: 0 0 659 352
%%BeginSetup
%%EndSetup
%%EndComments
%%BeginProlog
[ /.notdef /.notdef /.notdef /.notdef /.notdef /.notdef /.notdef /.notdef /.notdef /.notdef
/.notdef /.notdef /.notdef /.notdef /.notdef /.notdef /.notdef /.notdef /.notdef /.notdef
/.notdef /.notdef /.notdef /.notdef /.notdef /.notdef /.notdef /.notdef /.notdef /.notdef
/.notdef /.notdef /space /exclam /quotedbl /numbersign /dollar /percent /ampersand /quoteright
/parenleft /parenright /asterisk /plus /comma /hyphen /period /slash /zero /one
/two /three /four /five /six /seven /eight /nine /colon /semicolon
/less /equal /greater /question /at /A /B /C /D /E
/F /G /H /I /J /K /L /M /N /O
/P /Q /R /S /T /U /V /W /X /Y
/Z /bracketleft /backslash /bracketright /asciicircum /underscore /quoteleft /a /b /c
/d /e /f /g /h /i /j /k /l /m
/n /o /p /q /r /s /t /u /v /w
/x /y /z /braceleft /bar /braceright /asciitilde /.notdef /.notdef /.notdef
/.notdef /.notdef /.notdef /.notdef /.notdef /.notdef /.notdef /.notdef /.notdef /.notdef
/.notdef /.notdef /.notdef /.notdef /.notdef /.notdef /.notdef /.notdef /.notdef /.notdef
/.notdef /.notdef /.notdef /.notdef /.notdef /.notdef /.notdef /.notdef /.notdef /.notdef
/space /exclamdown /cent /sterling /currency /yen /brokenbar /section /dieresis /copyright
/ordfeminine /guillemotleft /logicalnot /hyphen /registered /macron /degree /plusminus /twosuperior /threesuperior
/acute /mu /paragraph /periodcentered /cedilla /onesuperior /ordmasculine /guillemotright /onequarter /onehalf
/threequarters /questiondown /Agrave /Aacute /Acircumflex /Atilde /Adieresis /Aring /AE /Ccedilla
/Egrave /Eacute /Ecircumflex /Edieresis /Igrave /Iacute /Icircumflex /Idieresis /Eth /Ntilde
/Ograve /Oacute /Ocircumflex /Otilde /Odieresis /multiply /Oslash /Ugrave /Uacute /Ucircumflex
/Udieresis /Yacute /Thorn /germandbls /agrave /aacute /acircumflex /atilde /adieresis /aring
/ae /ccedilla /egrave /eacute /ecircumflex /edieresis /igrave /iacute /icircumflex /idieresis
/eth /ntilde /ograve /oacute /ocircumflex /otilde /odieresis /divide /oslash /ugrave
/uacute /ucircumflex /udieresis /yacute /thorn /ydieresis] /isolatin1encoding exch def
/cp {closepath} bind def
/c {curveto} bind def
/f {fill} bind def
/a {arc} bind def
/ef {eofill} bind def
/ex {exch} bind def
/gr {grestore} bind def
/gs {gsave} bind def
/sa {save} bind def
/rs {restore} bind def
/l {lineto} bind def
/m {moveto} bind def
/rm {rmoveto} bind def
/n {newpath} bind def
/s {stroke} bind def
/sh {show} bind def
/slc {setlinecap} bind def
/slj {setlinejoin} bind def
/slw {setlinewidth} bind def
/srgb {setrgbcolor} bind def
/rot {rotate} bind def
/sc {scale} bind def
/sd {setdash} bind def
/ff {findfont} bind def
/sf {setfont} bind def
/scf {scalefont} bind def
/sw {stringwidth pop} bind def
/tr {translate} bind def

/ellipsedict 8 dict def
ellipsedict /mtrx matrix put
/ellipse
{ ellipsedict begin
   /endangle exch def
   /startangle exch def
   /yrad exch def
   /xrad exch def
   /y exch def
   /x exch def   /savematrix mtrx currentmatrix def
   x y tr xrad yrad sc
   0 0 1 startangle endangle arc
   savematrix setmatrix
   end
} def

/mergeprocs {
dup length
3 -1 roll
dup
length
dup
5 1 roll
3 -1 roll
add
array cvx
dup
3 -1 roll
0 exch
putinterval
dup
4 2 roll
putinterval
} bind def
/Times-Roman-latin1
    /Times-Roman findfont
    dup length dict begin
	{1 index /FID ne {def} {pop pop} ifelse} forall
	/Encoding isolatin1encoding def
    currentdict end
definefont pop
/Times-Italic-latin1
    /Times-Italic findfont
    dup length dict begin
	{1 index /FID ne {def} {pop pop} ifelse} forall
	/Encoding isolatin1encoding def
    currentdict end
definefont pop
/Times-Bold-latin1
    /Times-Bold findfont
    dup length dict begin
	{1 index /FID ne {def} {pop pop} ifelse} forall
	/Encoding isolatin1encoding def
    currentdict end
definefont pop
/Times-BoldItalic-latin1
    /Times-BoldItalic findfont
    dup length dict begin
	{1 index /FID ne {def} {pop pop} ifelse} forall
	/Encoding isolatin1encoding def
    currentdict end
definefont pop
/AvantGarde-Gothic-latin1
    /AvantGarde-Gothic findfont
    dup length dict begin
	{1 index /FID ne {def} {pop pop} ifelse} forall
	/Encoding isolatin1encoding def
    currentdict end
definefont pop
/AvantGarde-BookOblique-latin1
    /AvantGarde-BookOblique findfont
    dup length dict begin
	{1 index /FID ne {def} {pop pop} ifelse} forall
	/Encoding isolatin1encoding def
    currentdict end
definefont pop
/AvantGarde-Demi-latin1
    /AvantGarde-Demi findfont
    dup length dict begin
	{1 index /FID ne {def} {pop pop} ifelse} forall
	/Encoding isolatin1encoding def
    currentdict end
definefont pop
/AvantGarde-DemiOblique-latin1
    /AvantGarde-DemiOblique findfont
    dup length dict begin
	{1 index /FID ne {def} {pop pop} ifelse} forall
	/Encoding isolatin1encoding def
    currentdict end
definefont pop
/Bookman-Light-latin1
    /Bookman-Light findfont
    dup length dict begin
	{1 index /FID ne {def} {pop pop} ifelse} forall
	/Encoding isolatin1encoding def
    currentdict end
definefont pop
/Bookman-LightItalic-latin1
    /Bookman-LightItalic findfont
    dup length dict begin
	{1 index /FID ne {def} {pop pop} ifelse} forall
	/Encoding isolatin1encoding def
    currentdict end
definefont pop
/Bookman-Demi-latin1
    /Bookman-Demi findfont
    dup length dict begin
	{1 index /FID ne {def} {pop pop} ifelse} forall
	/Encoding isolatin1encoding def
    currentdict end
definefont pop
/Bookman-DemiItalic-latin1
    /Bookman-DemiItalic findfont
    dup length dict begin
	{1 index /FID ne {def} {pop pop} ifelse} forall
	/Encoding isolatin1encoding def
    currentdict end
definefont pop
/Courier-latin1
    /Courier findfont
    dup length dict begin
	{1 index /FID ne {def} {pop pop} ifelse} forall
	/Encoding isolatin1encoding def
    currentdict end
definefont pop
/Courier-Oblique-latin1
    /Courier-Oblique findfont
    dup length dict begin
	{1 index /FID ne {def} {pop pop} ifelse} forall
	/Encoding isolatin1encoding def
    currentdict end
definefont pop
/Courier-Bold-latin1
    /Courier-Bold findfont
    dup length dict begin
	{1 index /FID ne {def} {pop pop} ifelse} forall
	/Encoding isolatin1encoding def
    currentdict end
definefont pop
/Courier-BoldOblique-latin1
    /Courier-BoldOblique findfont
    dup length dict begin
	{1 index /FID ne {def} {pop pop} ifelse} forall
	/Encoding isolatin1encoding def
    currentdict end
definefont pop
/Helvetica-latin1
    /Helvetica findfont
    dup length dict begin
	{1 index /FID ne {def} {pop pop} ifelse} forall
	/Encoding isolatin1encoding def
    currentdict end
definefont pop
/Helvetica-Oblique-latin1
    /Helvetica-Oblique findfont
    dup length dict begin
	{1 index /FID ne {def} {pop pop} ifelse} forall
	/Encoding isolatin1encoding def
    currentdict end
definefont pop
/Helvetica-Bold-latin1
    /Helvetica-Bold findfont
    dup length dict begin
	{1 index /FID ne {def} {pop pop} ifelse} forall
	/Encoding isolatin1encoding def
    currentdict end
definefont pop
/Helvetica-BoldOblique-latin1
    /Helvetica-BoldOblique findfont
    dup length dict begin
	{1 index /FID ne {def} {pop pop} ifelse} forall
	/Encoding isolatin1encoding def
    currentdict end
definefont pop
/Helvetica-Narrow-latin1
    /Helvetica-Narrow findfont
    dup length dict begin
	{1 index /FID ne {def} {pop pop} ifelse} forall
	/Encoding isolatin1encoding def
    currentdict end
definefont pop
/Helvetica-Narrow-Oblique-latin1
    /Helvetica-Narrow-Oblique findfont
    dup length dict begin
	{1 index /FID ne {def} {pop pop} ifelse} forall
	/Encoding isolatin1encoding def
    currentdict end
definefont pop
/Helvetica-Narrow-Bold-latin1
    /Helvetica-Narrow-Bold findfont
    dup length dict begin
	{1 index /FID ne {def} {pop pop} ifelse} forall
	/Encoding isolatin1encoding def
    currentdict end
definefont pop
/Helvetica-Narrow-BoldOblique-latin1
    /Helvetica-Narrow-BoldOblique findfont
    dup length dict begin
	{1 index /FID ne {def} {pop pop} ifelse} forall
	/Encoding isolatin1encoding def
    currentdict end
definefont pop
/NewCenturySchlbk-Roman-latin1
    /NewCenturySchlbk-Roman findfont
    dup length dict begin
	{1 index /FID ne {def} {pop pop} ifelse} forall
	/Encoding isolatin1encoding def
    currentdict end
definefont pop
/NewCenturySchlbk-Italic-latin1
    /NewCenturySchlbk-Italic findfont
    dup length dict begin
	{1 index /FID ne {def} {pop pop} ifelse} forall
	/Encoding isolatin1encoding def
    currentdict end
definefont pop
/NewCenturySchlbk-Bold-latin1
    /NewCenturySchlbk-Bold findfont
    dup length dict begin
	{1 index /FID ne {def} {pop pop} ifelse} forall
	/Encoding isolatin1encoding def
    currentdict end
definefont pop
/NewCenturySchlbk-BoldItalic-latin1
    /NewCenturySchlbk-BoldItalic findfont
    dup length dict begin
	{1 index /FID ne {def} {pop pop} ifelse} forall
	/Encoding isolatin1encoding def
    currentdict end
definefont pop
/Palatino-Roman-latin1
    /Palatino-Roman findfont
    dup length dict begin
	{1 index /FID ne {def} {pop pop} ifelse} forall
	/Encoding isolatin1encoding def
    currentdict end
definefont pop
/Palatino-Italic-latin1
    /Palatino-Italic findfont
    dup length dict begin
	{1 index /FID ne {def} {pop pop} ifelse} forall
	/Encoding isolatin1encoding def
    currentdict end
definefont pop
/Palatino-Bold-latin1
    /Palatino-Bold findfont
    dup length dict begin
	{1 index /FID ne {def} {pop pop} ifelse} forall
	/Encoding isolatin1encoding def
    currentdict end
definefont pop
/Palatino-BoldItalic-latin1
    /Palatino-BoldItalic findfont
    dup length dict begin
	{1 index /FID ne {def} {pop pop} ifelse} forall
	/Encoding isolatin1encoding def
    currentdict end
definefont pop
/Symbol-latin1
    /Symbol findfont
definefont pop
/ZapfChancery-MediumItalic-latin1
    /ZapfChancery-MediumItalic findfont
    dup length dict begin
	{1 index /FID ne {def} {pop pop} ifelse} forall
	/Encoding isolatin1encoding def
    currentdict end
definefont pop
/ZapfDingbats-latin1
    /ZapfDingbats findfont
    dup length dict begin
	{1 index /FID ne {def} {pop pop} ifelse} forall
	/Encoding isolatin1encoding def
    currentdict end
definefont pop
28.346000 -28.346000 scale
-15.550000 -18.115000 translate
%%EndProlog


1.000000 1.000000 1.000000 srgb
n 17.725000 7.575000 2.125000 1.825000 0 360 ellipse f
0.100000 slw
[] 0 sd
[] 0 sd
0.000000 0.000000 0.000000 srgb
n 17.725000 7.575000 2.125000 1.825000 0 360 ellipse cp s
1.000000 1.000000 1.000000 srgb
n 27.540000 7.630000 2.125000 1.825000 0 360 ellipse f
0.100000 slw
[] 0 sd
[] 0 sd
0.000000 0.000000 0.000000 srgb
n 27.540000 7.630000 2.125000 1.825000 0 360 ellipse cp s
1.000000 1.000000 1.000000 srgb
n 17.755000 16.185000 2.125000 1.825000 0 360 ellipse f
0.100000 slw
[] 0 sd
[] 0 sd
0.000000 0.000000 0.000000 srgb
n 17.755000 16.185000 2.125000 1.825000 0 360 ellipse cp s
1.000000 1.000000 1.000000 srgb
n 27.620000 16.240000 2.125000 1.825000 0 360 ellipse f
0.100000 slw
[] 0 sd
[] 0 sd
0.000000 0.000000 0.000000 srgb
n 27.620000 16.240000 2.125000 1.825000 0 360 ellipse cp s
1.000000 1.000000 1.000000 srgb
n 35.535000 12.045000 2.125000 1.825000 0 360 ellipse f
0.100000 slw
[] 0 sd
[] 0 sd
0.000000 0.000000 0.000000 srgb
n 35.535000 12.045000 2.125000 1.825000 0 360 ellipse cp s
0.100000 slw
[] 0 sd
[] 0 sd
0 slc
n 19.880000 16.185000 m 25.008220 16.235232 l s
[] 0 sd
0 slj
0 slc
n 25.383202 16.238905 m 24.880777 16.483996 l 25.008220 16.235232 l 24.885675 15.984020 l ef
n 25.383202 16.238905 m 24.880777 16.483996 l 25.008220 16.235232 l 24.885675 15.984020 l cp s
0.100000 slw
[] 0 sd
[] 0 sd
0 slc
n 17.725000 9.400000 m 17.752056 13.873206 l s
[] 0 sd
0 slj
0 slc
n 17.754324 14.248199 m 17.501304 13.749720 l 17.752056 13.873206 l 18.001295 13.746696 l ef
n 17.754324 14.248199 m 17.501304 13.749720 l 17.752056 13.873206 l 18.001295 13.746696 l cp s
0.100000 slw
[] 0 sd
[] 0 sd
0 slc
n 19.281816 14.850109 m 25.646700 9.285308 l s
[] 0 sd
0 slj
0 slc
n 25.929014 9.038481 m 25.717146 9.555793 l 25.646700 9.285308 l 25.388043 9.179374 l ef
n 25.929014 9.038481 m 25.717146 9.555793 l 25.646700 9.285308 l 25.388043 9.179374 l cp s
0.100000 slw
[] 0 sd
[] 0 sd
0 slc
n 27.540000 9.455000 m 27.612149 13.928260 l s
[] 0 sd
0 slj
0 slc
n 27.618197 14.303211 m 27.360166 13.807308 l 27.612149 13.928260 l 27.860101 13.799244 l ef
n 27.618197 14.303211 m 27.360166 13.807308 l 27.612149 13.928260 l 27.860101 13.799244 l cp s
0.100000 slw
[] 0 sd
[] 0 sd
0 slc
n 29.800000 15.750000 m 33.386421 13.433053 l s
[] 0 sd
0 slj
0 slc
n 33.701407 13.229562 m 33.417087 13.710874 l 33.386421 13.433053 l 33.145765 13.290893 l ef
n 33.701407 13.229562 m 33.417087 13.710874 l 33.386421 13.433053 l 33.145765 13.290893 l cp s
0.100000 slw
[] 0 sd
[] 0 sd
0 slc
n 29.700000 8.100000 m 33.617315 10.500174 l s
[] 0 sd
0 slj
0 slc
n 33.937068 10.696089 m 33.380120 10.648037 l 33.617315 10.500174 l 33.641341 10.221700 l ef
n 33.937068 10.696089 m 33.380120 10.648037 l 33.617315 10.500174 l 33.641341 10.221700 l cp s
/Helvetica-latin1 ff 1.621931 scf sf
(1) 17.175000 7.661591 m
 gs 1 -1 sc sh gr
/Helvetica-latin1 ff 1.621931 scf sf
(2) 26.915000 7.764091 m
 gs 1 -1 sc sh gr
/Helvetica-latin1 ff 1.621931 scf sf
(5) 17.030000 16.419091 m
 gs 1 -1 sc sh gr
/Helvetica-latin1 ff 1.621931 scf sf
(4) 27.145000 16.474091 m
 gs 1 -1 sc sh gr
/Helvetica-latin1 ff 1.621931 scf sf
(3) 35.060000 12.279091 m
 gs 1 -1 sc sh gr
0.100000 slw
[] 0 sd
[] 0 sd
0 slc
n 22.697177 -3.939475 12.542156 12.542156 77.074495 101.356152 ellipse s
[] 0 sd
0 slj
0 slc
n 19.861161 8.278348 m 20.405880 8.152728 l 20.225678 8.366392 l 20.288488 8.638751 l ef
n 19.861161 8.278348 m 20.405880 8.152728 l 20.225678 8.366392 l 20.288488 8.638751 l cp s
0.100000 slw
[] 0 sd
[] 0 sd
0 slc
n 22.567823 19.144475 12.542156 12.542156 257.074495 281.356152 ellipse s
[] 0 sd
0 slj
0 slc
n 25.403839 6.926652 m 24.859120 7.052272 l 25.039322 6.838608 l 24.976512 6.566249 l ef
n 25.403839 6.926652 m 24.859120 7.052272 l 25.039322 6.838608 l 24.976512 6.566249 l cp s
0.100000 slw
[] 0 sd
[] 0 sd
0 slc
n 37.694503 11.784646 1.050454 1.050454 269.657454 97.376732 ellipse s
[] 0 sd
0 slj
0 slc
n 37.348289 10.786604 m 37.694208 10.347467 l 37.687581 10.626897 l 37.907149 10.799856 l ef
n 37.348289 10.786604 m 37.694208 10.347467 l 37.687581 10.626897 l 37.907149 10.799856 l cp s
showpage
